{
  "project_info": {
    "project_number": "99328974249",
    "firebase_url": "https://hospital-finder-1557981094579.firebaseio.com",
    "project_id": "hospital-finder-1557981094579",
    "storage_bucket": "hospital-finder-1557981094579.appspot.com"
  },
  "client": [
    {
      "client_info": {
        "mobilesdk_app_id": "1:99328974249:android:2c5d9906fbd91ab4",
        "android_client_info": {
          "package_name": "com.manve.hospitalfinder"
        }
      },
      "oauth_client": [
        {
          "client_id": "99328974249-keb9ojsjleo2rrt43djn3n6g8ogs0gfi.apps.googleusercontent.com",
          "client_type": 1,
          "android_info": {
            "package_name": "com.manve.hospitalfinder",
            "certificate_hash": "182621e622216795d6beed9d9a90917822aaeeb0"
          }
        },
        {
          "client_id": "99328974249-mk137c84ucdoto3calhhj6sn44jk7u3k.apps.googleusercontent.com",
          "client_type": 3
        }
      ],
      "api_key": [
        {
          "current_key": "AIzaSyBrNmdXgZoWstHcCfKC9OoiuUH4uIb5NNc"
        }
      ],
      "services": {
        "appinvite_service": {
          "other_platform_oauth_client": [
            {
              "client_id": "99328974249-mk137c84ucdoto3calhhj6sn44jk7u3k.apps.googleusercontent.com",
              "client_type": 3
            }
          ]
        }
      }
    }
  ],
  "configuration_version": "1"
}